﻿VB oszlop;A;8;i
Talajtípus;T;3;n
Alaptípus;P;3;i
Földmunka;C;4;i
oszl.száll táv. (km); ; ;i
ÖNH tartó fejszerk.;K;5;i
ÖNH. fesz. fejszerk.;M;16;i
CST felfügg I.jelű;F;9;i
CST felfügg. II.jelű;G;9;i
Lengőtartó;FF;3;i
végfeszítő;N;6;i
fejszerk. nullázása;O;2;i
földelés 3m-es rúdf.; ; ;i
pótföldelő (3m); ; ;i
lép.fesz.ker. föld.; ; ;i
oszlopramászás; ; ;i